^C:\USERS\USER\SOURCE\REPOS\FUNCTION\FUNCTION.CPP
C:\USERS\USER\SOURCE\REPOS\FUNCTION\X64\DEBUG\VC143.PDB
C:\USERS\USER\SOURCE\REPOS\FUNCTION\X64\DEBUG\VC143.IDB
C:\USERS\USER\SOURCE\REPOS\FUNCTION\X64\DEBUG\FUNCTION.OBJ
